<svg width="27" height="27" viewBox="0 0 27 27" fill="none" xmlns="http://www.w3.org/2000/svg">
<rect width="27" height="27" rx="13.5" fill="#F6F5F5"/>
<path d="M21.2273 20.5048L15.9099 15.3277C16.6344 14.357 17.0654 13.1637 17.0654 11.8764C17.0654 8.63724 14.3597 6 11.0345 6C7.70575 5.99652 5 8.63376 5 11.8729C5 15.112 7.70575 17.7493 11.0309 17.7493C12.4725 17.7493 13.7946 17.2552 14.8342 16.4306L20.1225 21.5833L21.2273 20.5048ZM11.0309 16.3924C8.47365 16.3924 6.39091 14.364 6.39091 11.8729C6.39091 9.38178 8.47365 7.35341 11.0309 7.35341C13.5881 7.35341 15.6709 9.38178 15.6709 11.8729C15.6709 14.364 13.5918 16.3924 11.0309 16.3924Z" fill="black"/>
</svg>
